test/fetch_tb.vcd
$date
	Sun Jun  1 20:21:49 2025
$end
$version
	Icarus Verilog
$end
$timescale
	1ps
$end
$scope module fetch_tb $end
$var wire 32 ! instr [31:0] $end
$var reg 1 " cfsm__pc_src $end
$var reg 1 # cfsm__pc_update $end
$var reg 1 $ clk $end
$var reg 32 % imm_ext [31:0] $end
$var reg 1 & reset $end
$scope module uut $end
$var wire 1 " cfsm__pc_src $end
$var wire 1 # cfsm__pc_update $end
$var wire 1 $ clk $end
$var wire 32 ' imm_ext [31:0] $end
$var wire 1 & reset $end
$var wire 32 ( pc_cur [31:0] $end
$var wire 32 ) instr [31:0] $end
$var reg 32 * pc_next [31:0] $end
$var reg 32 + pc_plus_4 [31:0] $end
$var reg 32 , pc_target [31:0] $end
$scope module instruction_memory $end
$var wire 1 $ CLK $end
$var wire 32 - RD [31:0] $end
$var wire 32 . WD [31:0] $end
$var wire 1 / WE $end
$var wire 32 0 A [31:0] $end
$var parameter 32 1 SIZE $end
$upscope $end
$scope module program_counter $end
$var wire 1 $ clk $end
$var wire 32 2 data_in [31:0] $end
$var wire 1 # en $end
$var wire 1 & reset $end
$var reg 32 3 data_out [31:0] $end
$upscope $end
$upscope $end
$scope begin $ivl_for_loop0 $end
$var integer 32 4 i [31:0] $end
$upscope $end
$upscope $end
$enddefinitions $end
$comment Show the parameter values. $end
$dumpall
b10000000000 1
$end
#0
$dumpvars
b0 4
bx 3
bx 2
bx 0
0/
bx .
bx -
bx ,
bx +
bx *
bx )
bx (
bx '
1&
bx %
0$
0#
0"
bx !
$end
#5000
b100 *
b100 2
b100 +
b0 (
b0 0
b0 3
1$
#10000
0&
0$
#15000
1$
#20000
1#
0$
#25000
b1000 *
b1000 2
b1000 +
b100 (
b100 0
b100 3
1$
#30000
0#
0$
#35000
1$
#40000
1&
0$
b1111111100 4
b1010101011001100111011110001000 !
b1010101011001100111011110001000 )
b1010101011001100111011110001000 -
#45000
b100 *
b100 2
b100 +
b10001001000100011001101000100 !
b10001001000100011001101000100 )
b10001001000100011001101000100 -
b0 (
b0 0
b0 3
1$
#50000
1#
0&
0$
#55000
b1000 *
b1000 2
b1000 +
b1010101011001100111011110001000 !
b1010101011001100111011110001000 )
b1010101011001100111011110001000 -
b100 (
b100 0
b100 3
1$
#60000
0$
#65000
b1100 *
b1100 2
b1100 +
b10011001101010101011101111001100 !
b10011001101010101011101111001100 )
b10011001101010101011101111001100 -
b1000 (
b1000 0
b1000 3
1$
#70000
0$
#75000
b10000 *
b10000 2
b10000 +
b11011101111011101111111100000000 !
b11011101111011101111111100000000 )
b11011101111011101111111100000000 -
b1100 (
b1100 0
b1100 3
1$
#80000
0$
#85000
b10100 *
b10100 2
b10100 +
b0 !
b0 )
b0 -
b10000 (
b10000 0
b10000 3
1$
#90000
0$
#95000
b11000 *
b11000 2
b11000 +
b10100 (
b10100 0
b10100 3
1$
#100000
0$
#105000
b11100 *
b11100 2
b11100 +
b11000 (
b11000 0
b11000 3
1$
#110000
0$
#115000
b100000 *
b100000 2
b100000 +
b11100 (
b11100 0
b11100 3
1$
#120000
0$
#125000
b100100 *
b100100 2
b100100 +
b100000 (
b100000 0
b100000 3
1$
#130000
0$
#135000
b101000 *
b101000 2
b101000 +
b100100 (
b100100 0
b100100 3
1$
#140000
0$
#145000
b101100 *
b101100 2
b101100 +
b101000 (
b101000 0
b101000 3
1$
#150000
0$
#155000
b110000 *
b110000 2
b110000 +
b101100 (
b101100 0
b101100 3
1$
#160000
0$
#165000
b110100 *
b110100 2
b110100 +
b110000 (
b110000 0
b110000 3
1$
#170000
0$
#175000
b111000 *
b111000 2
b111000 +
b110100 (
b110100 0
b110100 3
1$
#180000
0$
#185000
b111100 *
b111100 2
b111100 +
b111000 (
b111000 0
b111000 3
1$
#190000
0$
#195000
b1000000 *
b1000000 2
b1000000 +
b111100 (
b111100 0
b111100 3
1$
#200000
0$
#205000
b1000100 *
b1000100 2
b1000100 +
b1000000 (
b1000000 0
b1000000 3
1$
#210000
0$
#215000
b1001000 *
b1001000 2
b1001000 +
b1000100 (
b1000100 0
b1000100 3
1$
#220000
0$
#225000
b1001100 *
b1001100 2
b1001100 +
b1001000 (
b1001000 0
b1001000 3
1$
#230000
0$
#235000
b1010000 *
b1010000 2
b1010000 +
b1001100 (
b1001100 0
b1001100 3
1$
#240000
0$
#245000
b1010100 *
b1010100 2
b1010100 +
b1010000 (
b1010000 0
b1010000 3
1$
#250000
0$
#255000
b1011000 *
b1011000 2
b1011000 +
b1010100 (
b1010100 0
b1010100 3
1$
#260000
0$
#265000
b1011100 *
b1011100 2
b1011100 +
b1011000 (
b1011000 0
b1011000 3
1$
#270000
0$
#275000
b1100000 *
b1100000 2
b1100000 +
b1011100 (
b1011100 0
b1011100 3
1$
#280000
0$
#285000
b1100100 *
b1100100 2
b1100100 +
b1100000 (
b1100000 0
b1100000 3
1$
#290000
0$
#295000
b1101000 *
b1101000 2
b1101000 +
b1100100 (
b1100100 0
b1100100 3
1$
#300000
0$
#305000
b1101100 *
b1101100 2
b1101100 +
b1101000 (
b1101000 0
b1101000 3
1$
#310000
0$
#315000
b1110000 *
b1110000 2
b1110000 +
b1101100 (
b1101100 0
b1101100 3
1$
#320000
0$
#325000
b1110100 *
b1110100 2
b1110100 +
b1110000 (
b1110000 0
b1110000 3
1$
#330000
0$
#335000
b1111000 *
b1111000 2
b1111000 +
b1110100 (
b1110100 0
b1110100 3
1$
#340000
0$
#345000
b1111100 *
b1111100 2
b1111100 +
b1111000 (
b1111000 0
b1111000 3
1$
#350000
0$
#355000
b10000000 *
b10000000 2
b10000000 +
b1111100 (
b1111100 0
b1111100 3
1$
#360000
0$
#365000
b10000100 *
b10000100 2
b10000100 +
b10000000 (
b10000000 0
b10000000 3
1$
#370000
0$
#375000
b10001000 *
b10001000 2
b10001000 +
b10000100 (
b10000100 0
b10000100 3
1$
#380000
0$
#385000
b10001100 *
b10001100 2
b10001100 +
b10001000 (
b10001000 0
b10001000 3
1$
#390000
0$
#395000
b10010000 *
b10010000 2
b10010000 +
b10001100 (
b10001100 0
b10001100 3
1$
#400000
0$
#405000
b10010100 *
b10010100 2
b10010100 +
b10010000 (
b10010000 0
b10010000 3
1$
#410000
0$
#415000
b10011000 *
b10011000 2
b10011000 +
b10010100 (
b10010100 0
b10010100 3
1$
#420000
0$
#425000
b10011100 *
b10011100 2
b10011100 +
b10011000 (
b10011000 0
b10011000 3
1$
#430000
0$
#435000
b10100000 *
b10100000 2
b10100000 +
b10011100 (
b10011100 0
b10011100 3
1$
#440000
0$
#445000
b10100100 *
b10100100 2
b10100100 +
b10100000 (
b10100000 0
b10100000 3
1$
#450000
0$
#455000
b10101000 *
b10101000 2
b10101000 +
b10100100 (
b10100100 0
b10100100 3
1$
#460000
0$
#465000
b10101100 *
b10101100 2
b10101100 +
b10101000 (
b10101000 0
b10101000 3
1$
#470000
0$
#475000
b10110000 *
b10110000 2
b10110000 +
b10101100 (
b10101100 0
b10101100 3
1$
#480000
0$
#485000
b10110100 *
b10110100 2
b10110100 +
b10110000 (
b10110000 0
b10110000 3
1$
#490000
0$
#495000
b10111000 *
b10111000 2
b10111000 +
b10110100 (
b10110100 0
b10110100 3
1$
#500000
0$
#505000
b10111100 *
b10111100 2
b10111100 +
b10111000 (
b10111000 0
b10111000 3
1$
#510000
0$
#515000
b11000000 *
b11000000 2
b11000000 +
b10111100 (
b10111100 0
b10111100 3
1$
#520000
0$
#525000
b11000100 *
b11000100 2
b11000100 +
b11000000 (
b11000000 0
b11000000 3
1$
#530000
0$
#535000
b11001000 *
b11001000 2
b11001000 +
b11000100 (
b11000100 0
b11000100 3
1$
#540000
0$
#545000
b11001100 *
b11001100 2
b11001100 +
b11001000 (
b11001000 0
b11001000 3
1$
#550000
0$
#555000
b11010000 *
b11010000 2
b11010000 +
b11001100 (
b11001100 0
b11001100 3
1$
#560000
0$
#565000
b11010100 *
b11010100 2
b11010100 +
b11010000 (
b11010000 0
b11010000 3
1$
#570000
0$
#575000
b11011000 *
b11011000 2
b11011000 +
b11010100 (
b11010100 0
b11010100 3
1$
#580000
0$
#585000
b11011100 *
b11011100 2
b11011100 +
b11011000 (
b11011000 0
b11011000 3
1$
#590000
0$
#595000
b11100000 *
b11100000 2
b11100000 +
b11011100 (
b11011100 0
b11011100 3
1$
#600000
0$
#605000
b11100100 *
b11100100 2
b11100100 +
b11100000 (
b11100000 0
b11100000 3
1$
#610000
0$
#615000
b11101000 *
b11101000 2
b11101000 +
b11100100 (
b11100100 0
b11100100 3
1$
#620000
0$
#625000
b11101100 *
b11101100 2
b11101100 +
b11101000 (
b11101000 0
b11101000 3
1$
#630000
0$
#635000
b11110000 *
b11110000 2
b11110000 +
b11101100 (
b11101100 0
b11101100 3
1$
#640000
0$
#645000
b11110100 *
b11110100 2
b11110100 +
b11110000 (
b11110000 0
b11110000 3
1$
#650000
0$
#655000
b11111000 *
b11111000 2
b11111000 +
b11110100 (
b11110100 0
b11110100 3
1$
#660000
0$
#665000
b11111100 *
b11111100 2
b11111100 +
b11111000 (
b11111000 0
b11111000 3
1$
#670000
0$
#675000
b100000000 *
b100000000 2
b100000000 +
b11111100 (
b11111100 0
b11111100 3
1$
#680000
0$
#685000
b100000100 *
b100000100 2
b100000100 +
b100000000 (
b100000000 0
b100000000 3
1$
#690000
0$
#695000
b100001000 *
b100001000 2
b100001000 +
b100000100 (
b100000100 0
b100000100 3
1$
#700000
0$
#705000
b100001100 *
b100001100 2
b100001100 +
b100001000 (
b100001000 0
b100001000 3
1$
#710000
0$
#715000
b100010000 *
b100010000 2
b100010000 +
b100001100 (
b100001100 0
b100001100 3
1$
#720000
0$
#725000
b100010100 *
b100010100 2
b100010100 +
b100010000 (
b100010000 0
b100010000 3
1$
#730000
0$
#735000
b100011000 *
b100011000 2
b100011000 +
b100010100 (
b100010100 0
b100010100 3
1$
#740000
0$
#745000
b100011100 *
b100011100 2
b100011100 +
b100011000 (
b100011000 0
b100011000 3
1$
#750000
0$
#755000
b100100000 *
b100100000 2
b100100000 +
b100011100 (
b100011100 0
b100011100 3
1$
#760000
0$
#765000
b100100100 *
b100100100 2
b100100100 +
b100100000 (
b100100000 0
b100100000 3
1$
#770000
0$
#775000
b100101000 *
b100101000 2
b100101000 +
b100100100 (
b100100100 0
b100100100 3
1$
#780000
0$
#785000
b100101100 *
b100101100 2
b100101100 +
b100101000 (
b100101000 0
b100101000 3
1$
#790000
0$
#795000
b100110000 *
b100110000 2
b100110000 +
b100101100 (
b100101100 0
b100101100 3
1$
#800000
0$
#805000
b100110100 *
b100110100 2
b100110100 +
b100110000 (
b100110000 0
b100110000 3
1$
#810000
0$
#815000
b100111000 *
b100111000 2
b100111000 +
b100110100 (
b100110100 0
b100110100 3
1$
#820000
0$
#825000
b100111100 *
b100111100 2
b100111100 +
b100111000 (
b100111000 0
b100111000 3
1$
#830000
0$
#835000
b101000000 *
b101000000 2
b101000000 +
b100111100 (
b100111100 0
b100111100 3
1$
#840000
0$
#845000
b101000100 *
b101000100 2
b101000100 +
b101000000 (
b101000000 0
b101000000 3
1$
#850000
0$
#855000
b101001000 *
b101001000 2
b101001000 +
b101000100 (
b101000100 0
b101000100 3
1$
#860000
0$
#865000
b101001100 *
b101001100 2
b101001100 +
b101001000 (
b101001000 0
b101001000 3
1$
#870000
0$
#875000
b101010000 *
b101010000 2
b101010000 +
b101001100 (
b101001100 0
b101001100 3
1$
#880000
0$
#885000
b101010100 *
b101010100 2
b101010100 +
b101010000 (
b101010000 0
b101010000 3
1$
#890000
0$
#895000
b101011000 *
b101011000 2
b101011000 +
b101010100 (
b101010100 0
b101010100 3
1$
#900000
0$
#905000
b101011100 *
b101011100 2
b101011100 +
b101011000 (
b101011000 0
b101011000 3
1$
#910000
0$
#915000
b101100000 *
b101100000 2
b101100000 +
b101011100 (
b101011100 0
b101011100 3
1$
#920000
0$
#925000
b101100100 *
b101100100 2
b101100100 +
b101100000 (
b101100000 0
b101100000 3
1$
#930000
0$
#935000
b101101000 *
b101101000 2
b101101000 +
b101100100 (
b101100100 0
b101100100 3
1$
#940000
0$
#945000
b101101100 *
b101101100 2
b101101100 +
b101101000 (
b101101000 0
b101101000 3
1$
#950000
0$
#955000
b101110000 *
b101110000 2
b101110000 +
b101101100 (
b101101100 0
b101101100 3
1$
#960000
0$
#965000
b101110100 *
b101110100 2
b101110100 +
b101110000 (
b101110000 0
b101110000 3
1$
#970000
0$
#975000
b101111000 *
b101111000 2
b101111000 +
b101110100 (
b101110100 0
b101110100 3
1$
#980000
0$
#985000
b101111100 *
b101111100 2
b101111100 +
b101111000 (
b101111000 0
b101111000 3
1$
#990000
0$
#995000
b110000000 *
b110000000 2
b110000000 +
b101111100 (
b101111100 0
b101111100 3
1$
#1000000
0$
#1005000
b110000100 *
b110000100 2
b110000100 +
b110000000 (
b110000000 0
b110000000 3
1$
#1010000
0$
#1015000
b110001000 *
b110001000 2
b110001000 +
b110000100 (
b110000100 0
b110000100 3
1$
#1020000
0$
#1025000
b110001100 *
b110001100 2
b110001100 +
b110001000 (
b110001000 0
b110001000 3
1$
#1030000
0$
#1035000
b110010000 *
b110010000 2
b110010000 +
b110001100 (
b110001100 0
b110001100 3
1$
#1040000
0$
#1045000
b110010100 *
b110010100 2
b110010100 +
b110010000 (
b110010000 0
b110010000 3
1$
#1050000
0$
#1055000
b110011000 *
b110011000 2
b110011000 +
b110010100 (
b110010100 0
b110010100 3
1$
#1060000
0$
#1065000
b110011100 *
b110011100 2
b110011100 +
b110011000 (
b110011000 0
b110011000 3
1$
#1070000
0$
#1075000
b110100000 *
b110100000 2
b110100000 +
b110011100 (
b110011100 0
b110011100 3
1$
#1080000
0$
#1085000
b110100100 *
b110100100 2
b110100100 +
b110100000 (
b110100000 0
b110100000 3
1$
#1090000
0$
#1095000
b110101000 *
b110101000 2
b110101000 +
b110100100 (
b110100100 0
b110100100 3
1$
#1100000
0$
#1105000
b110101100 *
b110101100 2
b110101100 +
b110101000 (
b110101000 0
b110101000 3
1$
#1110000
0$
#1115000
b110110000 *
b110110000 2
b110110000 +
b110101100 (
b110101100 0
b110101100 3
1$
#1120000
0$
#1125000
b110110100 *
b110110100 2
b110110100 +
b110110000 (
b110110000 0
b110110000 3
1$
#1130000
0$
#1135000
b110111000 *
b110111000 2
b110111000 +
b110110100 (
b110110100 0
b110110100 3
1$
#1140000
0$
#1145000
b110111100 *
b110111100 2
b110111100 +
b110111000 (
b110111000 0
b110111000 3
1$
#1150000
0$
#1155000
b111000000 *
b111000000 2
b111000000 +
b110111100 (
b110111100 0
b110111100 3
1$
#1160000
0$
#1165000
b111000100 *
b111000100 2
b111000100 +
b111000000 (
b111000000 0
b111000000 3
1$
#1170000
0$
#1175000
b111001000 *
b111001000 2
b111001000 +
b111000100 (
b111000100 0
b111000100 3
1$
#1180000
0$
#1185000
b111001100 *
b111001100 2
b111001100 +
b111001000 (
b111001000 0
b111001000 3
1$
#1190000
0$
#1195000
b111010000 *
b111010000 2
b111010000 +
b111001100 (
b111001100 0
b111001100 3
1$
#1200000
0$
#1205000
b111010100 *
b111010100 2
b111010100 +
b111010000 (
b111010000 0
b111010000 3
1$
#1210000
0$
#1215000
b111011000 *
b111011000 2
b111011000 +
b111010100 (
b111010100 0
b111010100 3
1$
#1220000
0$
#1225000
b111011100 *
b111011100 2
b111011100 +
b111011000 (
b111011000 0
b111011000 3
1$
#1230000
0$
#1235000
b111100000 *
b111100000 2
b111100000 +
b111011100 (
b111011100 0
b111011100 3
1$
#1240000
0$
#1245000
b111100100 *
b111100100 2
b111100100 +
b111100000 (
b111100000 0
b111100000 3
1$
#1250000
0$
#1255000
b111101000 *
b111101000 2
b111101000 +
b111100100 (
b111100100 0
b111100100 3
1$
#1260000
0$
#1265000
b111101100 *
b111101100 2
b111101100 +
b111101000 (
b111101000 0
b111101000 3
1$
#1270000
0$
#1275000
b111110000 *
b111110000 2
b111110000 +
b111101100 (
b111101100 0
b111101100 3
1$
#1280000
0$
#1285000
b111110100 *
b111110100 2
b111110100 +
b111110000 (
b111110000 0
b111110000 3
1$
#1290000
0$
#1295000
b111111000 *
b111111000 2
b111111000 +
b111110100 (
b111110100 0
b111110100 3
1$
#1300000
0$
#1305000
b111111100 *
b111111100 2
b111111100 +
b111111000 (
b111111000 0
b111111000 3
1$
#1310000
0$
#1315000
b1000000000 *
b1000000000 2
b1000000000 +
b111111100 (
b111111100 0
b111111100 3
1$
#1320000
0$
#1325000
b1000000100 *
b1000000100 2
b1000000100 +
b1000000000 (
b1000000000 0
b1000000000 3
1$
#1330000
0$
#1335000
b1000001000 *
b1000001000 2
b1000001000 +
b1000000100 (
b1000000100 0
b1000000100 3
1$
#1340000
0$
#1345000
b1000001100 *
b1000001100 2
b1000001100 +
b1000001000 (
b1000001000 0
b1000001000 3
1$
#1350000
0$
#1355000
b1000010000 *
b1000010000 2
b1000010000 +
b1000001100 (
b1000001100 0
b1000001100 3
1$
#1360000
0$
#1365000
b1000010100 *
b1000010100 2
b1000010100 +
b1000010000 (
b1000010000 0
b1000010000 3
1$
#1370000
0$
#1375000
b1000011000 *
b1000011000 2
b1000011000 +
b1000010100 (
b1000010100 0
b1000010100 3
1$
#1380000
0$
#1385000
b1000011100 *
b1000011100 2
b1000011100 +
b1000011000 (
b1000011000 0
b1000011000 3
1$
#1390000
0$
#1395000
b1000100000 *
b1000100000 2
b1000100000 +
b1000011100 (
b1000011100 0
b1000011100 3
1$
#1400000
0$
#1405000
b1000100100 *
b1000100100 2
b1000100100 +
b1000100000 (
b1000100000 0
b1000100000 3
1$
#1410000
0$
#1415000
b1000101000 *
b1000101000 2
b1000101000 +
b1000100100 (
b1000100100 0
b1000100100 3
1$
#1420000
0$
#1425000
b1000101100 *
b1000101100 2
b1000101100 +
b1000101000 (
b1000101000 0
b1000101000 3
1$
#1430000
0$
#1435000
b1000110000 *
b1000110000 2
b1000110000 +
b1000101100 (
b1000101100 0
b1000101100 3
1$
#1440000
0$
#1445000
b1000110100 *
b1000110100 2
b1000110100 +
b1000110000 (
b1000110000 0
b1000110000 3
1$
#1450000
0$
#1455000
b1000111000 *
b1000111000 2
b1000111000 +
b1000110100 (
b1000110100 0
b1000110100 3
1$
#1460000
0$
#1465000
b1000111100 *
b1000111100 2
b1000111100 +
b1000111000 (
b1000111000 0
b1000111000 3
1$
#1470000
0$
#1475000
b1001000000 *
b1001000000 2
b1001000000 +
b1000111100 (
b1000111100 0
b1000111100 3
1$
#1480000
0$
#1485000
b1001000100 *
b1001000100 2
b1001000100 +
b1001000000 (
b1001000000 0
b1001000000 3
1$
#1490000
0$
#1495000
b1001001000 *
b1001001000 2
b1001001000 +
b1001000100 (
b1001000100 0
b1001000100 3
1$
#1500000
0$
#1505000
b1001001100 *
b1001001100 2
b1001001100 +
b1001001000 (
b1001001000 0
b1001001000 3
1$
#1510000
0$
#1515000
b1001010000 *
b1001010000 2
b1001010000 +
b1001001100 (
b1001001100 0
b1001001100 3
1$
#1520000
0$
#1525000
b1001010100 *
b1001010100 2
b1001010100 +
b1001010000 (
b1001010000 0
b1001010000 3
1$
#1530000
0$
#1535000
b1001011000 *
b1001011000 2
b1001011000 +
b1001010100 (
b1001010100 0
b1001010100 3
1$
#1540000
0$
#1545000
b1001011100 *
b1001011100 2
b1001011100 +
b1001011000 (
b1001011000 0
b1001011000 3
1$
#1550000
0$
#1555000
b1001100000 *
b1001100000 2
b1001100000 +
b1001011100 (
b1001011100 0
b1001011100 3
1$
#1560000
0$
#1565000
b1001100100 *
b1001100100 2
b1001100100 +
b1001100000 (
b1001100000 0
b1001100000 3
1$
#1570000
0$
#1575000
b1001101000 *
b1001101000 2
b1001101000 +
b1001100100 (
b1001100100 0
b1001100100 3
1$
#1580000
0$
#1585000
b1001101100 *
b1001101100 2
b1001101100 +
b1001101000 (
b1001101000 0
b1001101000 3
1$
#1590000
0$
#1595000
b1001110000 *
b1001110000 2
b1001110000 +
b1001101100 (
b1001101100 0
b1001101100 3
1$
#1600000
0$
#1605000
b1001110100 *
b1001110100 2
b1001110100 +
b1001110000 (
b1001110000 0
b1001110000 3
1$
#1610000
0$
#1615000
b1001111000 *
b1001111000 2
b1001111000 +
b1001110100 (
b1001110100 0
b1001110100 3
1$
#1620000
0$
#1625000
b1001111100 *
b1001111100 2
b1001111100 +
b1001111000 (
b1001111000 0
b1001111000 3
1$
#1630000
0$
#1635000
b1010000000 *
b1010000000 2
b1010000000 +
b1001111100 (
b1001111100 0
b1001111100 3
1$
#1640000
0$
#1645000
b1010000100 *
b1010000100 2
b1010000100 +
b1010000000 (
b1010000000 0
b1010000000 3
1$
#1650000
0$
#1655000
b1010001000 *
b1010001000 2
b1010001000 +
b1010000100 (
b1010000100 0
b1010000100 3
1$
#1660000
0$
#1665000
b1010001100 *
b1010001100 2
b1010001100 +
b1010001000 (
b1010001000 0
b1010001000 3
1$
#1670000
0$
#1675000
b1010010000 *
b1010010000 2
b1010010000 +
b1010001100 (
b1010001100 0
b1010001100 3
1$
#1680000
0$
#1685000
b1010010100 *
b1010010100 2
b1010010100 +
b1010010000 (
b1010010000 0
b1010010000 3
1$
#1690000
0$
#1695000
b1010011000 *
b1010011000 2
b1010011000 +
b1010010100 (
b1010010100 0
b1010010100 3
1$
#1700000
0$
#1705000
b1010011100 *
b1010011100 2
b1010011100 +
b1010011000 (
b1010011000 0
b1010011000 3
1$
#1710000
0$
#1715000
b1010100000 *
b1010100000 2
b1010100000 +
b1010011100 (
b1010011100 0
b1010011100 3
1$
#1720000
0$
#1725000
b1010100100 *
b1010100100 2
b1010100100 +
b1010100000 (
b1010100000 0
b1010100000 3
1$
#1730000
0$
#1735000
b1010101000 *
b1010101000 2
b1010101000 +
b1010100100 (
b1010100100 0
b1010100100 3
1$
#1740000
0$
#1745000
b1010101100 *
b1010101100 2
b1010101100 +
b1010101000 (
b1010101000 0
b1010101000 3
1$
#1750000
0$
#1755000
b1010110000 *
b1010110000 2
b1010110000 +
b1010101100 (
b1010101100 0
b1010101100 3
1$
#1760000
0$
#1765000
b1010110100 *
b1010110100 2
b1010110100 +
b1010110000 (
b1010110000 0
b1010110000 3
1$
#1770000
0$
#1775000
b1010111000 *
b1010111000 2
b1010111000 +
b1010110100 (
b1010110100 0
b1010110100 3
1$
#1780000
0$
#1785000
b1010111100 *
b1010111100 2
b1010111100 +
b1010111000 (
b1010111000 0
b1010111000 3
1$
#1790000
0$
#1795000
b1011000000 *
b1011000000 2
b1011000000 +
b1010111100 (
b1010111100 0
b1010111100 3
1$
#1800000
0$
#1805000
b1011000100 *
b1011000100 2
b1011000100 +
b1011000000 (
b1011000000 0
b1011000000 3
1$
#1810000
0$
#1815000
b1011001000 *
b1011001000 2
b1011001000 +
b1011000100 (
b1011000100 0
b1011000100 3
1$
#1820000
0$
#1825000
b1011001100 *
b1011001100 2
b1011001100 +
b1011001000 (
b1011001000 0
b1011001000 3
1$
#1830000
0$
#1835000
b1011010000 *
b1011010000 2
b1011010000 +
b1011001100 (
b1011001100 0
b1011001100 3
1$
#1840000
0$
#1845000
b1011010100 *
b1011010100 2
b1011010100 +
b1011010000 (
b1011010000 0
b1011010000 3
1$
#1850000
0$
#1855000
b1011011000 *
b1011011000 2
b1011011000 +
b1011010100 (
b1011010100 0
b1011010100 3
1$
#1860000
0$
#1865000
b1011011100 *
b1011011100 2
b1011011100 +
b1011011000 (
b1011011000 0
b1011011000 3
1$
#1870000
0$
#1875000
b1011100000 *
b1011100000 2
b1011100000 +
b1011011100 (
b1011011100 0
b1011011100 3
1$
#1880000
0$
#1885000
b1011100100 *
b1011100100 2
b1011100100 +
b1011100000 (
b1011100000 0
b1011100000 3
1$
#1890000
0$
#1895000
b1011101000 *
b1011101000 2
b1011101000 +
b1011100100 (
b1011100100 0
b1011100100 3
1$
#1900000
0$
#1905000
b1011101100 *
b1011101100 2
b1011101100 +
b1011101000 (
b1011101000 0
b1011101000 3
1$
#1910000
0$
#1915000
b1011110000 *
b1011110000 2
b1011110000 +
b1011101100 (
b1011101100 0
b1011101100 3
1$
#1920000
0$
#1925000
b1011110100 *
b1011110100 2
b1011110100 +
b1011110000 (
b1011110000 0
b1011110000 3
1$
#1930000
0$
#1935000
b1011111000 *
b1011111000 2
b1011111000 +
b1011110100 (
b1011110100 0
b1011110100 3
1$
#1940000
0$
#1945000
b1011111100 *
b1011111100 2
b1011111100 +
b1011111000 (
b1011111000 0
b1011111000 3
1$
#1950000
0$
#1955000
b1100000000 *
b1100000000 2
b1100000000 +
b1011111100 (
b1011111100 0
b1011111100 3
1$
#1960000
0$
#1965000
b1100000100 *
b1100000100 2
b1100000100 +
b1100000000 (
b1100000000 0
b1100000000 3
1$
#1970000
0$
#1975000
b1100001000 *
b1100001000 2
b1100001000 +
b1100000100 (
b1100000100 0
b1100000100 3
1$
#1980000
0$
#1985000
b1100001100 *
b1100001100 2
b1100001100 +
b1100001000 (
b1100001000 0
b1100001000 3
1$
#1990000
0$
#1995000
b1100010000 *
b1100010000 2
b1100010000 +
b1100001100 (
b1100001100 0
b1100001100 3
1$
#2000000
0$
#2005000
b1100010100 *
b1100010100 2
b1100010100 +
b1100010000 (
b1100010000 0
b1100010000 3
1$
#2010000
0$
#2015000
b1100011000 *
b1100011000 2
b1100011000 +
b1100010100 (
b1100010100 0
b1100010100 3
1$
#2020000
0$
#2025000
b1100011100 *
b1100011100 2
b1100011100 +
b1100011000 (
b1100011000 0
b1100011000 3
1$
#2030000
0$
#2035000
b1100100000 *
b1100100000 2
b1100100000 +
b1100011100 (
b1100011100 0
b1100011100 3
1$
#2040000
0$
#2045000
b1100100100 *
b1100100100 2
b1100100100 +
b1100100000 (
b1100100000 0
b1100100000 3
1$
#2050000
0$
#2055000
b1100101000 *
b1100101000 2
b1100101000 +
b1100100100 (
b1100100100 0
b1100100100 3
1$
#2060000
0$
#2065000
b1100101100 *
b1100101100 2
b1100101100 +
b1100101000 (
b1100101000 0
b1100101000 3
1$
#2070000
0$
#2075000
b1100110000 *
b1100110000 2
b1100110000 +
b1100101100 (
b1100101100 0
b1100101100 3
1$
#2080000
0$
#2085000
b1100110100 *
b1100110100 2
b1100110100 +
b1100110000 (
b1100110000 0
b1100110000 3
1$
#2090000
0$
#2095000
b1100111000 *
b1100111000 2
b1100111000 +
b1100110100 (
b1100110100 0
b1100110100 3
1$
#2100000
0$
#2105000
b1100111100 *
b1100111100 2
b1100111100 +
b1100111000 (
b1100111000 0
b1100111000 3
1$
#2110000
0$
#2115000
b1101000000 *
b1101000000 2
b1101000000 +
b1100111100 (
b1100111100 0
b1100111100 3
1$
#2120000
0$
#2125000
b1101000100 *
b1101000100 2
b1101000100 +
b1101000000 (
b1101000000 0
b1101000000 3
1$
#2130000
0$
#2135000
b1101001000 *
b1101001000 2
b1101001000 +
b1101000100 (
b1101000100 0
b1101000100 3
1$
#2140000
0$
#2145000
b1101001100 *
b1101001100 2
b1101001100 +
b1101001000 (
b1101001000 0
b1101001000 3
1$
#2150000
0$
#2155000
b1101010000 *
b1101010000 2
b1101010000 +
b1101001100 (
b1101001100 0
b1101001100 3
1$
#2160000
0$
#2165000
b1101010100 *
b1101010100 2
b1101010100 +
b1101010000 (
b1101010000 0
b1101010000 3
1$
#2170000
0$
#2175000
b1101011000 *
b1101011000 2
b1101011000 +
b1101010100 (
b1101010100 0
b1101010100 3
1$
#2180000
0$
#2185000
b1101011100 *
b1101011100 2
b1101011100 +
b1101011000 (
b1101011000 0
b1101011000 3
1$
#2190000
0$
#2195000
b1101100000 *
b1101100000 2
b1101100000 +
b1101011100 (
b1101011100 0
b1101011100 3
1$
#2200000
0$
#2205000
b1101100100 *
b1101100100 2
b1101100100 +
b1101100000 (
b1101100000 0
b1101100000 3
1$
#2210000
0$
#2215000
b1101101000 *
b1101101000 2
b1101101000 +
b1101100100 (
b1101100100 0
b1101100100 3
1$
#2220000
0$
#2225000
b1101101100 *
b1101101100 2
b1101101100 +
b1101101000 (
b1101101000 0
b1101101000 3
1$
#2230000
0$
#2235000
b1101110000 *
b1101110000 2
b1101110000 +
b1101101100 (
b1101101100 0
b1101101100 3
1$
#2240000
0$
#2245000
b1101110100 *
b1101110100 2
b1101110100 +
b1101110000 (
b1101110000 0
b1101110000 3
1$
#2250000
0$
#2255000
b1101111000 *
b1101111000 2
b1101111000 +
b1101110100 (
b1101110100 0
b1101110100 3
1$
#2260000
0$
#2265000
b1101111100 *
b1101111100 2
b1101111100 +
b1101111000 (
b1101111000 0
b1101111000 3
1$
#2270000
0$
#2275000
b1110000000 *
b1110000000 2
b1110000000 +
b1101111100 (
b1101111100 0
b1101111100 3
1$
#2280000
0$
#2285000
b1110000100 *
b1110000100 2
b1110000100 +
b1110000000 (
b1110000000 0
b1110000000 3
1$
#2290000
0$
#2295000
b1110001000 *
b1110001000 2
b1110001000 +
b1110000100 (
b1110000100 0
b1110000100 3
1$
#2300000
0$
#2305000
b1110001100 *
b1110001100 2
b1110001100 +
b1110001000 (
b1110001000 0
b1110001000 3
1$
#2310000
0$
#2315000
b1110010000 *
b1110010000 2
b1110010000 +
b1110001100 (
b1110001100 0
b1110001100 3
1$
#2320000
0$
#2325000
b1110010100 *
b1110010100 2
b1110010100 +
b1110010000 (
b1110010000 0
b1110010000 3
1$
#2330000
0$
#2335000
b1110011000 *
b1110011000 2
b1110011000 +
b1110010100 (
b1110010100 0
b1110010100 3
1$
#2340000
0$
#2345000
b1110011100 *
b1110011100 2
b1110011100 +
b1110011000 (
b1110011000 0
b1110011000 3
1$
#2350000
0$
#2355000
b1110100000 *
b1110100000 2
b1110100000 +
b1110011100 (
b1110011100 0
b1110011100 3
1$
#2360000
0$
