test/fetch_tb.vcd
$date
	Tue May 27 12:46:20 2025
$end
$version
	Icarus Verilog
$end
$timescale
	1ps
$end
$scope module fetch_tb $end
$var wire 32 ! instr [31:0] $end
$var reg 1 " cfsm__pc_src $end
$var reg 1 # cfsm__pc_update $end
$var reg 1 $ clk $end
$var reg 32 % imm_ext [31:0] $end
$var reg 1 & reset $end
$scope module uut $end
$var wire 1 " cfsm__pc_src $end
$var wire 1 # cfsm__pc_update $end
$var wire 1 $ clk $end
$var wire 32 ' imm_ext [31:0] $end
$var wire 1 & reset $end
$var wire 32 ( pc_target [31:0] $end
$var wire 32 ) pc_plus_4 [31:0] $end
$var wire 32 * pc_next [31:0] $end
$var wire 32 + pc_cur [31:0] $end
$var wire 32 , instr [31:0] $end
$scope module instruction_memory $end
$var wire 1 $ CLK $end
$var wire 32 - RD [31:0] $end
$var wire 32 . WD [31:0] $end
$var wire 1 / WE $end
$var wire 32 0 A [31:0] $end
$var parameter 32 1 SIZE $end
$upscope $end
$scope module pc_mux $end
$var wire 32 2 out [31:0] $end
$var wire 1 " sel $end
$var parameter 32 3 INPUT_COUNT $end
$var parameter 32 4 INPUT_WIDTH $end
$upscope $end
$scope module program_counter $end
$var wire 1 $ clk $end
$var wire 32 5 data_in [31:0] $end
$var wire 1 # en $end
$var wire 1 & reset $end
$var reg 32 6 data_out [31:0] $end
$upscope $end
$scope module program_counter_plus_4 $end
$var wire 32 7 lhs [31:0] $end
$var wire 32 8 rhs [31:0] $end
$var parameter 32 9 WIDTH $end
$var reg 32 : out [31:0] $end
$upscope $end
$scope module program_counter_target $end
$var wire 32 ; lhs [31:0] $end
$var wire 32 < rhs [31:0] $end
$var parameter 32 = WIDTH $end
$var reg 32 > out [31:0] $end
$upscope $end
$upscope $end
$scope begin $ivl_for_loop0 $end
$var integer 32 ? i [31:0] $end
$upscope $end
$upscope $end
$enddefinitions $end
$comment Show the parameter values. $end
$dumpall
b100000 =
b100000 9
b100000 4
b10 3
b10000000000 1
$end
#0
$dumpvars
b0 ?
bx >
bx <
bx ;
bx :
b100 8
bx 7
bx 6
bx 5
bx 2
bx 0
0/
bx .
bx -
bx ,
bx +
bx *
bx )
bx (
bx '
1&
bx %
0$
0#
0"
bx !
$end
#5000
b100 *
b100 2
b100 5
b100 )
b100 :
b0 +
b0 0
b0 6
b0 7
b0 ;
1$
#10000
0&
0$
#15000
1$
#20000
1#
0$
#25000
b1000 *
b1000 2
b1000 5
b1000 )
b1000 :
b100 +
b100 0
b100 6
b100 7
b100 ;
1$
#30000
0#
0$
#35000
1$
#40000
1&
0$
b1111111100 ?
b1010101011001100111011110001000 !
b1010101011001100111011110001000 ,
b1010101011001100111011110001000 -
#45000
b100 *
b100 2
b100 5
b100 )
b100 :
b10001001000100011001101000100 !
b10001001000100011001101000100 ,
b10001001000100011001101000100 -
b0 +
b0 0
b0 6
b0 7
b0 ;
1$
#50000
1#
0&
0$
#55000
b1000 *
b1000 2
b1000 5
b1000 )
b1000 :
b1010101011001100111011110001000 !
b1010101011001100111011110001000 ,
b1010101011001100111011110001000 -
b100 +
b100 0
b100 6
b100 7
b100 ;
1$
#60000
0$
#65000
b1100 *
b1100 2
b1100 5
b1100 )
b1100 :
b10011001101010101011101111001100 !
b10011001101010101011101111001100 ,
b10011001101010101011101111001100 -
b1000 +
b1000 0
b1000 6
b1000 7
b1000 ;
1$
#70000
0$
#75000
b10000 *
b10000 2
b10000 5
b10000 )
b10000 :
b11011101111011101111111100000000 !
b11011101111011101111111100000000 ,
b11011101111011101111111100000000 -
b1100 +
b1100 0
b1100 6
b1100 7
b1100 ;
1$
#80000
0$
#85000
b10100 *
b10100 2
b10100 5
b10100 )
b10100 :
b0 !
b0 ,
b0 -
b10000 +
b10000 0
b10000 6
b10000 7
b10000 ;
1$
#90000
0$
#95000
b11000 *
b11000 2
b11000 5
b11000 )
b11000 :
b10100 +
b10100 0
b10100 6
b10100 7
b10100 ;
1$
#100000
0$
#105000
b11100 *
b11100 2
b11100 5
b11100 )
b11100 :
b11000 +
b11000 0
b11000 6
b11000 7
b11000 ;
1$
#110000
0$
#115000
b100000 *
b100000 2
b100000 5
b100000 )
b100000 :
b11100 +
b11100 0
b11100 6
b11100 7
b11100 ;
1$
#120000
0$
#125000
b100100 *
b100100 2
b100100 5
b100100 )
b100100 :
b100000 +
b100000 0
b100000 6
b100000 7
b100000 ;
1$
#130000
0$
#135000
b101000 *
b101000 2
b101000 5
b101000 )
b101000 :
b100100 +
b100100 0
b100100 6
b100100 7
b100100 ;
1$
#140000
0$
#145000
b101100 *
b101100 2
b101100 5
b101100 )
b101100 :
b101000 +
b101000 0
b101000 6
b101000 7
b101000 ;
1$
#150000
0$
#155000
b110000 *
b110000 2
b110000 5
b110000 )
b110000 :
b101100 +
b101100 0
b101100 6
b101100 7
b101100 ;
1$
#160000
0$
#165000
b110100 *
b110100 2
b110100 5
b110100 )
b110100 :
b110000 +
b110000 0
b110000 6
b110000 7
b110000 ;
1$
#170000
0$
#175000
b111000 *
b111000 2
b111000 5
b111000 )
b111000 :
b110100 +
b110100 0
b110100 6
b110100 7
b110100 ;
1$
#180000
0$
#185000
b111100 *
b111100 2
b111100 5
b111100 )
b111100 :
b111000 +
b111000 0
b111000 6
b111000 7
b111000 ;
1$
#190000
0$
#195000
b1000000 *
b1000000 2
b1000000 5
b1000000 )
b1000000 :
b111100 +
b111100 0
b111100 6
b111100 7
b111100 ;
1$
#200000
0$
#205000
b1000100 *
b1000100 2
b1000100 5
b1000100 )
b1000100 :
b1000000 +
b1000000 0
b1000000 6
b1000000 7
b1000000 ;
1$
#210000
0$
#215000
b1001000 *
b1001000 2
b1001000 5
b1001000 )
b1001000 :
b1000100 +
b1000100 0
b1000100 6
b1000100 7
b1000100 ;
1$
#220000
0$
#225000
b1001100 *
b1001100 2
b1001100 5
b1001100 )
b1001100 :
b1001000 +
b1001000 0
b1001000 6
b1001000 7
b1001000 ;
1$
#230000
0$
#235000
b1010000 *
b1010000 2
b1010000 5
b1010000 )
b1010000 :
b1001100 +
b1001100 0
b1001100 6
b1001100 7
b1001100 ;
1$
#240000
0$
#245000
b1010100 *
b1010100 2
b1010100 5
b1010100 )
b1010100 :
b1010000 +
b1010000 0
b1010000 6
b1010000 7
b1010000 ;
1$
#250000
0$
#255000
b1011000 *
b1011000 2
b1011000 5
b1011000 )
b1011000 :
b1010100 +
b1010100 0
b1010100 6
b1010100 7
b1010100 ;
1$
#260000
0$
#265000
b1011100 *
b1011100 2
b1011100 5
b1011100 )
b1011100 :
b1011000 +
b1011000 0
b1011000 6
b1011000 7
b1011000 ;
1$
#270000
0$
#275000
b1100000 *
b1100000 2
b1100000 5
b1100000 )
b1100000 :
b1011100 +
b1011100 0
b1011100 6
b1011100 7
b1011100 ;
1$
#280000
0$
#285000
b1100100 *
b1100100 2
b1100100 5
b1100100 )
b1100100 :
b1100000 +
b1100000 0
b1100000 6
b1100000 7
b1100000 ;
1$
#290000
0$
#295000
b1101000 *
b1101000 2
b1101000 5
b1101000 )
b1101000 :
b1100100 +
b1100100 0
b1100100 6
b1100100 7
b1100100 ;
1$
#300000
0$
#305000
b1101100 *
b1101100 2
b1101100 5
b1101100 )
b1101100 :
b1101000 +
b1101000 0
b1101000 6
b1101000 7
b1101000 ;
1$
#310000
0$
#315000
b1110000 *
b1110000 2
b1110000 5
b1110000 )
b1110000 :
b1101100 +
b1101100 0
b1101100 6
b1101100 7
b1101100 ;
1$
#320000
0$
#325000
b1110100 *
b1110100 2
b1110100 5
b1110100 )
b1110100 :
b1110000 +
b1110000 0
b1110000 6
b1110000 7
b1110000 ;
1$
#330000
0$
#335000
b1111000 *
b1111000 2
b1111000 5
b1111000 )
b1111000 :
b1110100 +
b1110100 0
b1110100 6
b1110100 7
b1110100 ;
1$
#340000
0$
#345000
b1111100 *
b1111100 2
b1111100 5
b1111100 )
b1111100 :
b1111000 +
b1111000 0
b1111000 6
b1111000 7
b1111000 ;
1$
#350000
0$
#355000
b10000000 *
b10000000 2
b10000000 5
b10000000 )
b10000000 :
b1111100 +
b1111100 0
b1111100 6
b1111100 7
b1111100 ;
1$
#360000
0$
#365000
b10000100 *
b10000100 2
b10000100 5
b10000100 )
b10000100 :
b10000000 +
b10000000 0
b10000000 6
b10000000 7
b10000000 ;
1$
#370000
0$
#375000
b10001000 *
b10001000 2
b10001000 5
b10001000 )
b10001000 :
b10000100 +
b10000100 0
b10000100 6
b10000100 7
b10000100 ;
1$
#380000
0$
#385000
b10001100 *
b10001100 2
b10001100 5
b10001100 )
b10001100 :
b10001000 +
b10001000 0
b10001000 6
b10001000 7
b10001000 ;
1$
#390000
0$
#395000
b10010000 *
b10010000 2
b10010000 5
b10010000 )
b10010000 :
b10001100 +
b10001100 0
b10001100 6
b10001100 7
b10001100 ;
1$
#400000
0$
#405000
b10010100 *
b10010100 2
b10010100 5
b10010100 )
b10010100 :
b10010000 +
b10010000 0
b10010000 6
b10010000 7
b10010000 ;
1$
#410000
0$
#415000
b10011000 *
b10011000 2
b10011000 5
b10011000 )
b10011000 :
b10010100 +
b10010100 0
b10010100 6
b10010100 7
b10010100 ;
1$
#420000
0$
#425000
b10011100 *
b10011100 2
b10011100 5
b10011100 )
b10011100 :
b10011000 +
b10011000 0
b10011000 6
b10011000 7
b10011000 ;
1$
#430000
0$
#435000
b10100000 *
b10100000 2
b10100000 5
b10100000 )
b10100000 :
b10011100 +
b10011100 0
b10011100 6
b10011100 7
b10011100 ;
1$
#440000
0$
#445000
b10100100 *
b10100100 2
b10100100 5
b10100100 )
b10100100 :
b10100000 +
b10100000 0
b10100000 6
b10100000 7
b10100000 ;
1$
#450000
0$
#455000
b10101000 *
b10101000 2
b10101000 5
b10101000 )
b10101000 :
b10100100 +
b10100100 0
b10100100 6
b10100100 7
b10100100 ;
1$
#460000
0$
#465000
b10101100 *
b10101100 2
b10101100 5
b10101100 )
b10101100 :
b10101000 +
b10101000 0
b10101000 6
b10101000 7
b10101000 ;
1$
#470000
0$
#475000
b10110000 *
b10110000 2
b10110000 5
b10110000 )
b10110000 :
b10101100 +
b10101100 0
b10101100 6
b10101100 7
b10101100 ;
1$
#480000
0$
#485000
b10110100 *
b10110100 2
b10110100 5
b10110100 )
b10110100 :
b10110000 +
b10110000 0
b10110000 6
b10110000 7
b10110000 ;
1$
#490000
0$
#495000
b10111000 *
b10111000 2
b10111000 5
b10111000 )
b10111000 :
b10110100 +
b10110100 0
b10110100 6
b10110100 7
b10110100 ;
1$
#500000
0$
#505000
b10111100 *
b10111100 2
b10111100 5
b10111100 )
b10111100 :
b10111000 +
b10111000 0
b10111000 6
b10111000 7
b10111000 ;
1$
#510000
0$
#515000
b11000000 *
b11000000 2
b11000000 5
b11000000 )
b11000000 :
b10111100 +
b10111100 0
b10111100 6
b10111100 7
b10111100 ;
1$
#520000
0$
#525000
b11000100 *
b11000100 2
b11000100 5
b11000100 )
b11000100 :
b11000000 +
b11000000 0
b11000000 6
b11000000 7
b11000000 ;
1$
#530000
0$
#535000
b11001000 *
b11001000 2
b11001000 5
b11001000 )
b11001000 :
b11000100 +
b11000100 0
b11000100 6
b11000100 7
b11000100 ;
1$
#540000
0$
#545000
b11001100 *
b11001100 2
b11001100 5
b11001100 )
b11001100 :
b11001000 +
b11001000 0
b11001000 6
b11001000 7
b11001000 ;
1$
#550000
0$
#555000
b11010000 *
b11010000 2
b11010000 5
b11010000 )
b11010000 :
b11001100 +
b11001100 0
b11001100 6
b11001100 7
b11001100 ;
1$
#560000
0$
#565000
b11010100 *
b11010100 2
b11010100 5
b11010100 )
b11010100 :
b11010000 +
b11010000 0
b11010000 6
b11010000 7
b11010000 ;
1$
#570000
0$
#575000
b11011000 *
b11011000 2
b11011000 5
b11011000 )
b11011000 :
b11010100 +
b11010100 0
b11010100 6
b11010100 7
b11010100 ;
1$
#580000
0$
#585000
b11011100 *
b11011100 2
b11011100 5
b11011100 )
b11011100 :
b11011000 +
b11011000 0
b11011000 6
b11011000 7
b11011000 ;
1$
#590000
0$
#595000
b11100000 *
b11100000 2
b11100000 5
b11100000 )
b11100000 :
b11011100 +
b11011100 0
b11011100 6
b11011100 7
b11011100 ;
1$
#600000
0$
#605000
b11100100 *
b11100100 2
b11100100 5
b11100100 )
b11100100 :
b11100000 +
b11100000 0
b11100000 6
b11100000 7
b11100000 ;
1$
#610000
0$
#615000
b11101000 *
b11101000 2
b11101000 5
b11101000 )
b11101000 :
b11100100 +
b11100100 0
b11100100 6
b11100100 7
b11100100 ;
1$
#620000
0$
#625000
b11101100 *
b11101100 2
b11101100 5
b11101100 )
b11101100 :
b11101000 +
b11101000 0
b11101000 6
b11101000 7
b11101000 ;
1$
#630000
0$
#635000
b11110000 *
b11110000 2
b11110000 5
b11110000 )
b11110000 :
b11101100 +
b11101100 0
b11101100 6
b11101100 7
b11101100 ;
1$
#640000
0$
#645000
b11110100 *
b11110100 2
b11110100 5
b11110100 )
b11110100 :
b11110000 +
b11110000 0
b11110000 6
b11110000 7
b11110000 ;
1$
#650000
0$
#655000
b11111000 *
b11111000 2
b11111000 5
b11111000 )
b11111000 :
b11110100 +
b11110100 0
b11110100 6
b11110100 7
b11110100 ;
1$
#660000
0$
#665000
b11111100 *
b11111100 2
b11111100 5
b11111100 )
b11111100 :
b11111000 +
b11111000 0
b11111000 6
b11111000 7
b11111000 ;
1$
#670000
0$
#675000
b100000000 *
b100000000 2
b100000000 5
b100000000 )
b100000000 :
b11111100 +
b11111100 0
b11111100 6
b11111100 7
b11111100 ;
1$
#680000
0$
#685000
b100000100 *
b100000100 2
b100000100 5
b100000100 )
b100000100 :
b100000000 +
b100000000 0
b100000000 6
b100000000 7
b100000000 ;
1$
#690000
0$
#695000
b100001000 *
b100001000 2
b100001000 5
b100001000 )
b100001000 :
b100000100 +
b100000100 0
b100000100 6
b100000100 7
b100000100 ;
1$
#700000
0$
#705000
b100001100 *
b100001100 2
b100001100 5
b100001100 )
b100001100 :
b100001000 +
b100001000 0
b100001000 6
b100001000 7
b100001000 ;
1$
#710000
0$
#715000
b100010000 *
b100010000 2
b100010000 5
b100010000 )
b100010000 :
b100001100 +
b100001100 0
b100001100 6
b100001100 7
b100001100 ;
1$
#720000
0$
#725000
b100010100 *
b100010100 2
b100010100 5
b100010100 )
b100010100 :
b100010000 +
b100010000 0
b100010000 6
b100010000 7
b100010000 ;
1$
#730000
0$
#735000
b100011000 *
b100011000 2
b100011000 5
b100011000 )
b100011000 :
b100010100 +
b100010100 0
b100010100 6
b100010100 7
b100010100 ;
1$
#740000
0$
#745000
b100011100 *
b100011100 2
b100011100 5
b100011100 )
b100011100 :
b100011000 +
b100011000 0
b100011000 6
b100011000 7
b100011000 ;
1$
#750000
0$
#755000
b100100000 *
b100100000 2
b100100000 5
b100100000 )
b100100000 :
b100011100 +
b100011100 0
b100011100 6
b100011100 7
b100011100 ;
1$
#760000
0$
#765000
b100100100 *
b100100100 2
b100100100 5
b100100100 )
b100100100 :
b100100000 +
b100100000 0
b100100000 6
b100100000 7
b100100000 ;
1$
#770000
0$
#775000
b100101000 *
b100101000 2
b100101000 5
b100101000 )
b100101000 :
b100100100 +
b100100100 0
b100100100 6
b100100100 7
b100100100 ;
1$
#780000
0$
#785000
b100101100 *
b100101100 2
b100101100 5
b100101100 )
b100101100 :
b100101000 +
b100101000 0
b100101000 6
b100101000 7
b100101000 ;
1$
#790000
0$
#795000
b100110000 *
b100110000 2
b100110000 5
b100110000 )
b100110000 :
b100101100 +
b100101100 0
b100101100 6
b100101100 7
b100101100 ;
1$
#800000
0$
#805000
b100110100 *
b100110100 2
b100110100 5
b100110100 )
b100110100 :
b100110000 +
b100110000 0
b100110000 6
b100110000 7
b100110000 ;
1$
#810000
0$
#815000
b100111000 *
b100111000 2
b100111000 5
b100111000 )
b100111000 :
b100110100 +
b100110100 0
b100110100 6
b100110100 7
b100110100 ;
1$
#820000
0$
#825000
b100111100 *
b100111100 2
b100111100 5
b100111100 )
b100111100 :
b100111000 +
b100111000 0
b100111000 6
b100111000 7
b100111000 ;
1$
#830000
0$
#835000
b101000000 *
b101000000 2
b101000000 5
b101000000 )
b101000000 :
b100111100 +
b100111100 0
b100111100 6
b100111100 7
b100111100 ;
1$
#840000
0$
#845000
b101000100 *
b101000100 2
b101000100 5
b101000100 )
b101000100 :
b101000000 +
b101000000 0
b101000000 6
b101000000 7
b101000000 ;
1$
#850000
0$
#855000
b101001000 *
b101001000 2
b101001000 5
b101001000 )
b101001000 :
b101000100 +
b101000100 0
b101000100 6
b101000100 7
b101000100 ;
1$
#860000
0$
#865000
b101001100 *
b101001100 2
b101001100 5
b101001100 )
b101001100 :
b101001000 +
b101001000 0
b101001000 6
b101001000 7
b101001000 ;
1$
#870000
0$
#875000
b101010000 *
b101010000 2
b101010000 5
b101010000 )
b101010000 :
b101001100 +
b101001100 0
b101001100 6
b101001100 7
b101001100 ;
1$
#880000
0$
#885000
b101010100 *
b101010100 2
b101010100 5
b101010100 )
b101010100 :
b101010000 +
b101010000 0
b101010000 6
b101010000 7
b101010000 ;
1$
#890000
0$
#895000
b101011000 *
b101011000 2
b101011000 5
b101011000 )
b101011000 :
b101010100 +
b101010100 0
b101010100 6
b101010100 7
b101010100 ;
1$
#900000
0$
#905000
b101011100 *
b101011100 2
b101011100 5
b101011100 )
b101011100 :
b101011000 +
b101011000 0
b101011000 6
b101011000 7
b101011000 ;
1$
#910000
0$
#915000
b101100000 *
b101100000 2
b101100000 5
b101100000 )
b101100000 :
b101011100 +
b101011100 0
b101011100 6
b101011100 7
b101011100 ;
1$
#920000
0$
#925000
b101100100 *
b101100100 2
b101100100 5
b101100100 )
b101100100 :
b101100000 +
b101100000 0
b101100000 6
b101100000 7
b101100000 ;
1$
#930000
0$
#935000
b101101000 *
b101101000 2
b101101000 5
b101101000 )
b101101000 :
b101100100 +
b101100100 0
b101100100 6
b101100100 7
b101100100 ;
1$
#940000
0$
#945000
b101101100 *
b101101100 2
b101101100 5
b101101100 )
b101101100 :
b101101000 +
b101101000 0
b101101000 6
b101101000 7
b101101000 ;
1$
#950000
0$
#955000
b101110000 *
b101110000 2
b101110000 5
b101110000 )
b101110000 :
b101101100 +
b101101100 0
b101101100 6
b101101100 7
b101101100 ;
1$
#960000
0$
#965000
b101110100 *
b101110100 2
b101110100 5
b101110100 )
b101110100 :
b101110000 +
b101110000 0
b101110000 6
b101110000 7
b101110000 ;
1$
#970000
0$
#975000
b101111000 *
b101111000 2
b101111000 5
b101111000 )
b101111000 :
b101110100 +
b101110100 0
b101110100 6
b101110100 7
b101110100 ;
1$
#980000
0$
#985000
b101111100 *
b101111100 2
b101111100 5
b101111100 )
b101111100 :
b101111000 +
b101111000 0
b101111000 6
b101111000 7
b101111000 ;
1$
#990000
0$
#995000
b110000000 *
b110000000 2
b110000000 5
b110000000 )
b110000000 :
b101111100 +
b101111100 0
b101111100 6
b101111100 7
b101111100 ;
1$
#1000000
0$
#1005000
b110000100 *
b110000100 2
b110000100 5
b110000100 )
b110000100 :
b110000000 +
b110000000 0
b110000000 6
b110000000 7
b110000000 ;
1$
#1010000
0$
#1015000
b110001000 *
b110001000 2
b110001000 5
b110001000 )
b110001000 :
b110000100 +
b110000100 0
b110000100 6
b110000100 7
b110000100 ;
1$
#1020000
0$
#1025000
b110001100 *
b110001100 2
b110001100 5
b110001100 )
b110001100 :
b110001000 +
b110001000 0
b110001000 6
b110001000 7
b110001000 ;
1$
#1030000
0$
#1035000
b110010000 *
b110010000 2
b110010000 5
b110010000 )
b110010000 :
b110001100 +
b110001100 0
b110001100 6
b110001100 7
b110001100 ;
1$
#1040000
0$
#1045000
b110010100 *
b110010100 2
b110010100 5
b110010100 )
b110010100 :
b110010000 +
b110010000 0
b110010000 6
b110010000 7
b110010000 ;
1$
#1050000
0$
#1055000
b110011000 *
b110011000 2
b110011000 5
b110011000 )
b110011000 :
b110010100 +
b110010100 0
b110010100 6
b110010100 7
b110010100 ;
1$
#1060000
0$
#1065000
b110011100 *
b110011100 2
b110011100 5
b110011100 )
b110011100 :
b110011000 +
b110011000 0
b110011000 6
b110011000 7
b110011000 ;
1$
#1070000
0$
#1075000
b110100000 *
b110100000 2
b110100000 5
b110100000 )
b110100000 :
b110011100 +
b110011100 0
b110011100 6
b110011100 7
b110011100 ;
1$
#1080000
0$
#1085000
b110100100 *
b110100100 2
b110100100 5
b110100100 )
b110100100 :
b110100000 +
b110100000 0
b110100000 6
b110100000 7
b110100000 ;
1$
#1090000
0$
#1095000
b110101000 *
b110101000 2
b110101000 5
b110101000 )
b110101000 :
b110100100 +
b110100100 0
b110100100 6
b110100100 7
b110100100 ;
1$
#1100000
0$
#1105000
b110101100 *
b110101100 2
b110101100 5
b110101100 )
b110101100 :
b110101000 +
b110101000 0
b110101000 6
b110101000 7
b110101000 ;
1$
#1110000
0$
#1115000
b110110000 *
b110110000 2
b110110000 5
b110110000 )
b110110000 :
b110101100 +
b110101100 0
b110101100 6
b110101100 7
b110101100 ;
1$
#1120000
0$
#1125000
b110110100 *
b110110100 2
b110110100 5
b110110100 )
b110110100 :
b110110000 +
b110110000 0
b110110000 6
b110110000 7
b110110000 ;
1$
#1130000
0$
#1135000
b110111000 *
b110111000 2
b110111000 5
b110111000 )
b110111000 :
b110110100 +
b110110100 0
b110110100 6
b110110100 7
b110110100 ;
1$
#1140000
0$
#1145000
b110111100 *
b110111100 2
b110111100 5
b110111100 )
b110111100 :
b110111000 +
b110111000 0
b110111000 6
b110111000 7
b110111000 ;
1$
#1150000
0$
#1155000
b111000000 *
b111000000 2
b111000000 5
b111000000 )
b111000000 :
b110111100 +
b110111100 0
b110111100 6
b110111100 7
b110111100 ;
1$
#1160000
0$
#1165000
b111000100 *
b111000100 2
b111000100 5
b111000100 )
b111000100 :
b111000000 +
b111000000 0
b111000000 6
b111000000 7
b111000000 ;
1$
#1170000
0$
#1175000
b111001000 *
b111001000 2
b111001000 5
b111001000 )
b111001000 :
b111000100 +
b111000100 0
b111000100 6
b111000100 7
b111000100 ;
1$
#1180000
0$
#1185000
b111001100 *
b111001100 2
b111001100 5
b111001100 )
b111001100 :
b111001000 +
b111001000 0
b111001000 6
b111001000 7
b111001000 ;
1$
#1190000
0$
#1195000
b111010000 *
b111010000 2
b111010000 5
b111010000 )
b111010000 :
b111001100 +
b111001100 0
b111001100 6
b111001100 7
b111001100 ;
1$
#1200000
0$
#1205000
b111010100 *
b111010100 2
b111010100 5
b111010100 )
b111010100 :
b111010000 +
b111010000 0
b111010000 6
b111010000 7
b111010000 ;
1$
#1210000
0$
#1215000
b111011000 *
b111011000 2
b111011000 5
b111011000 )
b111011000 :
b111010100 +
b111010100 0
b111010100 6
b111010100 7
b111010100 ;
1$
#1220000
0$
#1225000
b111011100 *
b111011100 2
b111011100 5
b111011100 )
b111011100 :
b111011000 +
b111011000 0
b111011000 6
b111011000 7
b111011000 ;
1$
#1230000
0$
#1235000
b111100000 *
b111100000 2
b111100000 5
b111100000 )
b111100000 :
b111011100 +
b111011100 0
b111011100 6
b111011100 7
b111011100 ;
1$
#1240000
0$
#1245000
b111100100 *
b111100100 2
b111100100 5
b111100100 )
b111100100 :
b111100000 +
b111100000 0
b111100000 6
b111100000 7
b111100000 ;
1$
#1250000
0$
#1255000
b111101000 *
b111101000 2
b111101000 5
b111101000 )
b111101000 :
b111100100 +
b111100100 0
b111100100 6
b111100100 7
b111100100 ;
1$
#1260000
0$
#1265000
b111101100 *
b111101100 2
b111101100 5
b111101100 )
b111101100 :
b111101000 +
b111101000 0
b111101000 6
b111101000 7
b111101000 ;
1$
#1270000
0$
#1275000
b111110000 *
b111110000 2
b111110000 5
b111110000 )
b111110000 :
b111101100 +
b111101100 0
b111101100 6
b111101100 7
b111101100 ;
1$
#1280000
0$
#1285000
b111110100 *
b111110100 2
b111110100 5
b111110100 )
b111110100 :
b111110000 +
b111110000 0
b111110000 6
b111110000 7
b111110000 ;
1$
#1290000
0$
#1295000
b111111000 *
b111111000 2
b111111000 5
b111111000 )
b111111000 :
b111110100 +
b111110100 0
b111110100 6
b111110100 7
b111110100 ;
1$
#1300000
0$
#1305000
b111111100 *
b111111100 2
b111111100 5
b111111100 )
b111111100 :
b111111000 +
b111111000 0
b111111000 6
b111111000 7
b111111000 ;
1$
#1310000
0$
#1315000
b1000000000 *
b1000000000 2
b1000000000 5
b1000000000 )
b1000000000 :
b111111100 +
b111111100 0
b111111100 6
b111111100 7
b111111100 ;
1$
#1320000
0$
#1325000
b1000000100 *
b1000000100 2
b1000000100 5
b1000000100 )
b1000000100 :
b1000000000 +
b1000000000 0
b1000000000 6
b1000000000 7
b1000000000 ;
1$
#1330000
0$
#1335000
b1000001000 *
b1000001000 2
b1000001000 5
b1000001000 )
b1000001000 :
b1000000100 +
b1000000100 0
b1000000100 6
b1000000100 7
b1000000100 ;
1$
#1340000
0$
#1345000
b1000001100 *
b1000001100 2
b1000001100 5
b1000001100 )
b1000001100 :
b1000001000 +
b1000001000 0
b1000001000 6
b1000001000 7
b1000001000 ;
1$
#1350000
0$
#1355000
b1000010000 *
b1000010000 2
b1000010000 5
b1000010000 )
b1000010000 :
b1000001100 +
b1000001100 0
b1000001100 6
b1000001100 7
b1000001100 ;
1$
#1360000
0$
#1365000
b1000010100 *
b1000010100 2
b1000010100 5
b1000010100 )
b1000010100 :
b1000010000 +
b1000010000 0
b1000010000 6
b1000010000 7
b1000010000 ;
1$
#1370000
0$
#1375000
b1000011000 *
b1000011000 2
b1000011000 5
b1000011000 )
b1000011000 :
b1000010100 +
b1000010100 0
b1000010100 6
b1000010100 7
b1000010100 ;
1$
#1380000
0$
#1385000
b1000011100 *
b1000011100 2
b1000011100 5
b1000011100 )
b1000011100 :
b1000011000 +
b1000011000 0
b1000011000 6
b1000011000 7
b1000011000 ;
1$
#1390000
0$
#1395000
b1000100000 *
b1000100000 2
b1000100000 5
b1000100000 )
b1000100000 :
b1000011100 +
b1000011100 0
b1000011100 6
b1000011100 7
b1000011100 ;
1$
#1400000
0$
#1405000
b1000100100 *
b1000100100 2
b1000100100 5
b1000100100 )
b1000100100 :
b1000100000 +
b1000100000 0
b1000100000 6
b1000100000 7
b1000100000 ;
1$
#1410000
0$
#1415000
b1000101000 *
b1000101000 2
b1000101000 5
b1000101000 )
b1000101000 :
b1000100100 +
b1000100100 0
b1000100100 6
b1000100100 7
b1000100100 ;
1$
#1420000
0$
#1425000
b1000101100 *
b1000101100 2
b1000101100 5
b1000101100 )
b1000101100 :
b1000101000 +
b1000101000 0
b1000101000 6
b1000101000 7
b1000101000 ;
1$
#1430000
0$
#1435000
b1000110000 *
b1000110000 2
b1000110000 5
b1000110000 )
b1000110000 :
b1000101100 +
b1000101100 0
b1000101100 6
b1000101100 7
b1000101100 ;
1$
#1440000
0$
#1445000
b1000110100 *
b1000110100 2
b1000110100 5
b1000110100 )
b1000110100 :
b1000110000 +
b1000110000 0
b1000110000 6
b1000110000 7
b1000110000 ;
1$
#1450000
0$
#1455000
b1000111000 *
b1000111000 2
b1000111000 5
b1000111000 )
b1000111000 :
b1000110100 +
b1000110100 0
b1000110100 6
b1000110100 7
b1000110100 ;
1$
#1460000
0$
#1465000
b1000111100 *
b1000111100 2
b1000111100 5
b1000111100 )
b1000111100 :
b1000111000 +
b1000111000 0
b1000111000 6
b1000111000 7
b1000111000 ;
1$
#1470000
0$
#1475000
b1001000000 *
b1001000000 2
b1001000000 5
b1001000000 )
b1001000000 :
b1000111100 +
b1000111100 0
b1000111100 6
b1000111100 7
b1000111100 ;
1$
#1480000
0$
#1485000
b1001000100 *
b1001000100 2
b1001000100 5
b1001000100 )
b1001000100 :
b1001000000 +
b1001000000 0
b1001000000 6
b1001000000 7
b1001000000 ;
1$
#1490000
0$
#1495000
b1001001000 *
b1001001000 2
b1001001000 5
b1001001000 )
b1001001000 :
b1001000100 +
b1001000100 0
b1001000100 6
b1001000100 7
b1001000100 ;
1$
#1500000
0$
#1505000
b1001001100 *
b1001001100 2
b1001001100 5
b1001001100 )
b1001001100 :
b1001001000 +
b1001001000 0
b1001001000 6
b1001001000 7
b1001001000 ;
1$
#1510000
0$
#1515000
b1001010000 *
b1001010000 2
b1001010000 5
b1001010000 )
b1001010000 :
b1001001100 +
b1001001100 0
b1001001100 6
b1001001100 7
b1001001100 ;
1$
#1520000
0$
#1525000
b1001010100 *
b1001010100 2
b1001010100 5
b1001010100 )
b1001010100 :
b1001010000 +
b1001010000 0
b1001010000 6
b1001010000 7
b1001010000 ;
1$
#1530000
0$
#1535000
b1001011000 *
b1001011000 2
b1001011000 5
b1001011000 )
b1001011000 :
b1001010100 +
b1001010100 0
b1001010100 6
b1001010100 7
b1001010100 ;
1$
#1540000
0$
#1545000
b1001011100 *
b1001011100 2
b1001011100 5
b1001011100 )
b1001011100 :
b1001011000 +
b1001011000 0
b1001011000 6
b1001011000 7
b1001011000 ;
1$
#1550000
0$
#1555000
b1001100000 *
b1001100000 2
b1001100000 5
b1001100000 )
b1001100000 :
b1001011100 +
b1001011100 0
b1001011100 6
b1001011100 7
b1001011100 ;
1$
#1560000
0$
#1565000
b1001100100 *
b1001100100 2
b1001100100 5
b1001100100 )
b1001100100 :
b1001100000 +
b1001100000 0
b1001100000 6
b1001100000 7
b1001100000 ;
1$
#1570000
0$
#1575000
b1001101000 *
b1001101000 2
b1001101000 5
b1001101000 )
b1001101000 :
b1001100100 +
b1001100100 0
b1001100100 6
b1001100100 7
b1001100100 ;
1$
#1580000
0$
#1585000
b1001101100 *
b1001101100 2
b1001101100 5
b1001101100 )
b1001101100 :
b1001101000 +
b1001101000 0
b1001101000 6
b1001101000 7
b1001101000 ;
1$
#1590000
0$
